<?xml version="1.0" encoding="utf-8"?>
<!-- Generator: Adobe Illustrator 17.0.0, SVG Export Plug-In . SVG Version: 6.00 Build 0)  -->
<!DOCTYPE svg PUBLIC "-//W3C//DTD SVG 1.1//EN" "http://www.w3.org/Graphics/SVG/1.1/DTD/svg11.dtd">
<svg version="1.1" id="Layer_1" xmlns="http://www.w3.org/2000/svg" xmlns:xlink="http://www.w3.org/1999/xlink" x="0px" y="0px"
	 width="166.692px" height="100px" viewBox="-47.525 -18 166.692 100" enable-background="new -47.525 -18 166.692 100"
	 xml:space="preserve">
<g>
	<g id="XMLID_4_">
		<path id="XMLID_6_" fill="#132226" d="M1623.898-379.981h-33.008c-2.082,0-3.767-1.685-3.866-3.767l-3.37-17.842
			c0-2.082,1.685-3.866,3.866-3.866h39.847c2.082,0,3.866,1.685,3.866,3.866v0.198l-3.37,17.644
			C1627.763-381.666,1625.979-379.981,1623.898-379.981z M1585.637-401.59l3.37,17.842c0,0.991,0.793,1.883,1.883,1.883h33.107
			c0.991,0,1.883-0.793,1.883-1.883v-0.198l3.271-17.644c0-0.991-0.892-1.784-1.883-1.784h-39.847
			C1586.43-403.374,1585.637-402.581,1585.637-401.59z"/>
		<path id="XMLID_5_" fill="#132226" d="M1607.444-390.092c-1.487,0-2.577-1.189-2.577-2.577s1.189-2.577,2.577-2.577
			c1.487,0,2.577,1.189,2.577,2.577S1608.831-390.092,1607.444-390.092z M1607.444-393.363c-0.396,0-0.595,0.297-0.595,0.595
			c0,0.298,0.297,0.595,0.595,0.595s0.595-0.297,0.595-0.595C1608.039-393.066,1607.741-393.363,1607.444-393.363z"/>
	</g>
	<path id="XMLID_3_" fill="#132226" d="M1629.25-407.537h-1.289c-0.694,0-1.784,0-1.982,0c-0.396,0-29.439,0-38.261,0h-2.28
		l0.099-1.09c0-0.099,0.198-3.073,2.478-4.262c1.784-0.991,4.758-2.082,6.344-2.181c1.487-0.099,5.749-1.388,6.443-2.082
		c0.297-1.189,0.099-2.082,0-2.181c-1.487-0.694-2.28-4.262-2.577-5.551c-2.082-2.379-2.676-4.857-1.685-6.839
		c0.099-0.793,0.099-1.388,0.099-1.388c0-0.198,0-0.297,0-0.496v-0.297c0-5.253,4.758-9.516,10.606-9.516s10.705,4.262,10.705,9.516
		c0,0.198,0,0.396,0,0.595v1.487c0.595,1.487,0.991,4.46-1.586,6.939c-0.198,0.991-0.694,3.866-2.775,6.146c0,0.396,0,0.892,0,1.09
		c0,0,0.496,1.189,5.452,2.28c5.055,1.09,7.93,2.082,8.921,3.866c0.793,1.586,1.09,2.577,1.09,2.775L1629.25-407.537z
		 M1587.818-409.619c12.886,0,37.369,0.099,38.162,0c0.198,0,0.496,0,0.793,0c-0.099-0.297-0.297-0.595-0.496-0.991
		c-0.694-1.189-4.163-2.181-7.533-2.875c-4.064-0.892-6.245-1.982-6.839-3.469c-0.396-0.892-0.198-2.181-0.099-2.379l0.099-0.396
		l0.198-0.198c2.181-2.379,2.478-5.551,2.478-5.551v-0.396l0.297-0.297c2.676-2.28,1.388-4.857,1.289-4.956l-0.099-0.198v-1.982
		c0-0.198,0-0.396,0-0.595c0-4.163-3.866-7.533-8.723-7.533c-4.758,0-8.723,3.37-8.723,7.533v0.297c0,0.099,0,0.198,0,0.297l0,0
		c0,0,0.099,0.892-0.099,1.982l-0.099,0.396c-0.991,1.883,0.793,4.064,1.586,4.956l0.198,0.297v0.396
		c0,0.892,0.991,3.866,1.487,4.262c1.586,0.793,1.388,3.271,0.991,4.56c-0.595,2.082-7.731,3.37-8.227,3.37
		c-1.09,0.099-3.767,0.991-5.551,1.982C1588.313-410.907,1588.016-410.213,1587.818-409.619z"/>
</g>
<path stroke="#000000" stroke-width="0.5" stroke-miterlimit="10" d="M1217.696-298.925c-0.656,1.66-1.09,3.413-1.553,5.142
	c-0.142,0.529-0.025,1.124-0.056,1.686c-0.024,0.425,0.016,0.906-0.168,1.26c-0.463,0.891-1.034,1.726-1.568,2.579
	c-0.428,0.683-0.921,1.331-1.289,2.044c-0.631,1.224,0.148,2.515,1.512,2.605c0.324,0.021,0.646,0.077,1.003,0.12
	c-0.256,0.519-0.558,0.968-0.703,1.463c-0.165,0.564,0.163,1.019,0.603,1.408c-0.247,0.562-0.286,1.169,0.224,1.553
	c0.61,0.46,0.677,0.971,0.456,1.618c-0.047,0.137-0.06,0.286-0.087,0.43c-0.291,1.544,0.512,2.9,1.847,3.363
	c0.284-0.361,0.587-0.71,0.907-1.047c-1.214-0.13-1.796-0.973-1.59-2.3c0.091-0.588,0.164-1.195,0.11-1.781
	c-0.027-0.289-0.314-0.609-0.567-0.808c-0.289-0.227-0.371-0.413-0.187-0.727c0.264-0.451,0.139-0.809-0.297-1.065
	c-0.352-0.206-0.439-0.438-0.188-0.801c0.175-0.253,0.309-0.544,0.41-0.836c0.268-0.779-0.177-1.491-0.994-1.613
	c-0.29-0.043-0.583-0.065-0.875-0.089c-0.679-0.054-0.949-0.52-0.597-1.1c0.428-0.704,0.916-1.372,1.35-2.073
	c0.538-0.871,1.071-1.748,1.559-2.648c0.294-0.542,0.351-1.13,0.192-1.758c-0.095-0.374-0.108-0.817-0.004-1.185
	c0.477-1.687,0.874-3.414,1.544-5.026c1.032-2.482,2.556-4.281,4.522-5.432v-1.288
	C1220.762-303.949,1218.833-301.802,1217.696-298.925z"/>
<path stroke="#000000" stroke-width="0.5" stroke-miterlimit="10" d="M1267.364-285.328c-0.19-0.396-0.419-0.774-0.63-1.16
	c-0.59-1.077-1.215-2.136-1.75-3.239c-0.177-0.364-0.16-0.842-0.16-1.268c0-0.689,0.17-1.394,0.07-2.063
	c-0.195-1.3-0.485-2.59-0.812-3.864c-0.888-3.458-2.654-6.187-5.568-7.86v1.439c0.564,0.398,1.107,0.85,1.614,1.392
	c1.683,1.799,2.554,3.989,2.999,6.377c0.158,0.845,0.396,1.678,0.504,2.528c0.076,0.6,0.072,1.236-0.038,1.829
	c-0.136,0.728-0.051,1.398,0.275,2.027c0.615,1.187,1.277,2.35,1.92,3.522c0.185,0.337,0.382,0.669,0.557,1.011
	c0.269,0.527,0.015,0.955-0.576,0.984c-0.366,0.018-0.736-0.001-1.098,0.047c-0.815,0.109-1.241,0.853-0.956,1.631
	c0.057,0.155,0.114,0.312,0.196,0.454c0.3,0.518,0.392,0.95-0.282,1.291c-0.148,0.075-0.229,0.531-0.154,0.746
	c0.142,0.402,0.118,0.635-0.285,0.833c-0.516,0.254-0.71,0.73-0.693,1.277c0.012,0.42,0.08,0.838,0.13,1.256
	c0.146,1.213-0.484,2.058-1.57,2.171c0.295,0.354,0.573,0.72,0.833,1.098c1.068-0.404,1.836-1.418,1.845-2.653
	c0.003-0.455-0.07-0.912-0.134-1.365c-0.06-0.421,0.028-0.731,0.424-0.971c0.541-0.328,0.721-0.842,0.623-1.471
	c-0.023-0.145,0.023-0.357,0.12-0.456c0.502-0.516,0.553-1.087,0.285-1.721c-0.134-0.316-0.266-0.633-0.419-1
	c0.377-0.021,0.686-0.053,0.996-0.054C1267.173-282.564,1268.037-283.929,1267.364-285.328z"/>
<path d="M1269.151-247.942c-0.563-2.858-2.307-4.957-4.481-6.765c-2.016-1.677-4.392-2.689-6.759-3.725
	c-2.612-1.143-4.843-2.808-6.646-5.019c-0.601-0.737-1.122-1.54-1.619-2.229c2.069-0.522,4.066-0.958,6.015-1.552
	c0.761-0.232,1.453-0.77,2.103-1.264c0.48-0.364,0.587-0.892,0.334-1.527c-1.05-2.636-1.7-5.373-1.801-8.215
	c-0.076-2.131-0.046-4.266-0.096-6.398c-0.067-2.84,0.036-5.702-0.298-8.512c-0.529-4.448-2.702-8.024-6.662-10.285
	c-4.599-2.625-9.496-3.087-14.57-1.619c-3.512,1.016-6.413,2.909-8.393,6.054c-1.554,2.468-2.252,5.211-2.318,8.089
	c-0.083,3.653-0.016,7.31-0.043,10.965c-0.024,3.382-0.605,6.666-1.843,9.824c-0.313,0.798-0.252,1.189,0.413,1.762
	c0.413,0.356,0.879,0.703,1.382,0.889c1.141,0.421,2.307,0.79,3.487,1.085c1.016,0.254,2.065,0.376,3.157,0.566
	c-0.154,0.258-0.268,0.462-0.395,0.658c-2.068,3.199-4.893,5.491-8.395,6.951c-2.543,1.061-4.986,2.275-7.036,4.167
	c-2.574,2.376-4.148,5.185-3.883,8.848c19.54,0,39.027,0,58.615,0C1269.332-246.147,1269.325-247.061,1269.151-247.942z
	 M1226.53-294.511c1.079-3.896,3.462-6.646,7.213-8.126c4.213-1.663,8.481-1.669,12.689,0.01c4.093,1.633,6.473,4.739,7.388,9.017
	c0.47,2.2,0.354,4.422,0.363,6.655c-2.695-0.512-5.231-3.138-5.814-5.992c-0.11-0.539-0.189-1.09-0.226-1.639
	c-0.031-0.474-0.164-0.856-0.617-1.053c-0.455-0.198-0.826-0.023-1.192,0.271c-3.649,2.931-7.582,5.39-11.957,7.1
	c-2.42,0.946-4.913,1.574-7.52,1.69c-0.177,0.008-0.355,0.013-0.533,0.013c-0.096,0-0.193-0.013-0.272-0.019
	c-0.039-0.051-0.082-0.081-0.083-0.111C1225.928-289.316,1225.817-291.938,1226.53-294.511z M1225.549-268.949
	c-0.497-0.173-0.971-0.413-1.529-0.654c1.961-4.832,2.041-9.851,1.893-14.917c7.863-0.198,14.266-3.816,20.389-8.215
	c0.043,0.091,0.098,0.169,0.119,0.256c0.909,3.889,3.464,6.218,7.13,7.455c0.503,0.17,0.653,0.362,0.651,0.885
	c-0.008,2.034,0.004,4.069,0.082,6.101c0.105,2.717,0.707,5.344,1.602,7.907c0.052,0.148,0.103,0.296,0.172,0.495
	c-1.283,0.773-2.663,1.1-4.056,1.36c-3.289,0.615-6.617,0.848-9.957,0.825c-3.159-0.022-6.32-0.081-9.473-0.251
	C1230.192-267.829,1227.822-268.157,1225.549-268.949z M1212.811-247.196c0.225-0.671,0.384-1.3,0.643-1.885
	c0.823-1.858,2.224-3.235,3.808-4.451c1.564-1.2,3.337-2.013,5.139-2.767c4.315-1.804,7.679-4.687,10.026-8.748
	c0.1-0.173,0.386-0.34,0.586-0.341c4.701-0.019,9.402-0.018,14.103-0.002c0.189,0.001,0.464,0.138,0.554,0.294
	c2.458,4.309,6.081,7.234,10.651,9.06c2.196,0.877,4.225,2.037,5.95,3.682c1.366,1.303,2.443,2.786,2.881,4.662
	c0.035,0.151,0.05,0.306,0.08,0.495C1249.108-247.196,1231.022-247.196,1212.811-247.196z"/>
<g>
	<path d="M1232.953-278.746c0.624,0,1.182,0.232,1.674,0.696c0.492,0.464,0.738,1.116,0.738,1.956c0,0.76-0.262,1.372-0.786,1.836
		c-0.524,0.464-1.214,0.696-2.07,0.696c-0.752,0-1.392-0.25-1.92-0.75s-0.828-1.162-0.9-1.986c-0.048-0.408-0.06-0.824-0.036-1.248
		c0.024-0.424,0.064-0.84,0.12-1.248c0.056-0.408,0.166-0.792,0.33-1.152c0.164-0.36,0.36-0.672,0.588-0.936
		c0.228-0.264,0.53-0.47,0.906-0.618c0.376-0.148,0.8-0.214,1.272-0.198c0.536,0.024,1.008,0.146,1.416,0.366
		c0.408,0.22,0.744,0.606,1.008,1.158l-1.572,0.672c-0.2-0.416-0.504-0.624-0.912-0.624c-0.36,0-0.656,0.12-0.888,0.36
		c-0.232,0.24-0.386,0.522-0.462,0.846s-0.106,0.678-0.09,1.062c0.064-0.192,0.236-0.388,0.516-0.588
		S1232.521-278.746,1232.953-278.746z M1233.319-275.464c0.204-0.204,0.306-0.446,0.306-0.726c0-0.28-0.102-0.522-0.306-0.726
		s-0.446-0.306-0.726-0.306s-0.522,0.102-0.726,0.306c-0.204,0.204-0.306,0.446-0.306,0.726c0,0.28,0.102,0.522,0.306,0.726
		c0.204,0.204,0.446,0.306,0.726,0.306C1232.873-275.159,1233.115-275.26,1233.319-275.464z"/>
	<path d="M1236.697-277.618c0-2.72,0.98-4.08,2.94-4.08c0.552,0,1.024,0.104,1.416,0.312c0.393,0.208,0.694,0.504,0.906,0.888
		s0.364,0.81,0.456,1.278c0.092,0.468,0.138,1.002,0.138,1.602s-0.046,1.13-0.138,1.59c-0.092,0.46-0.244,0.882-0.456,1.266
		s-0.514,0.68-0.906,0.888c-0.392,0.208-0.863,0.313-1.416,0.313C1237.677-273.562,1236.697-274.915,1236.697-277.618z
		 M1238.377-277.618c0,1.616,0.42,2.424,1.26,2.424c0.824,0,1.236-0.808,1.236-2.424c0-1.632-0.412-2.448-1.236-2.448
		C1238.797-280.066,1238.377-279.25,1238.377-277.618z"/>
	<path d="M1244.143-278.884c-0.308-0.308-0.462-0.686-0.462-1.134c0-0.448,0.154-0.828,0.462-1.14
		c0.309-0.312,0.687-0.468,1.135-0.468c0.439,0,0.817,0.156,1.134,0.468c0.315,0.312,0.474,0.692,0.474,1.14
		c0,0.448-0.155,0.826-0.468,1.134c-0.312,0.308-0.692,0.462-1.14,0.462C1244.829-278.422,1244.451-278.576,1244.143-278.884z
		 M1244.833-280.468c-0.12,0.124-0.18,0.274-0.18,0.45c0,0.176,0.058,0.324,0.174,0.444c0.116,0.12,0.266,0.18,0.45,0.18
		c0.176,0,0.325-0.06,0.449-0.18c0.124-0.12,0.187-0.268,0.187-0.444c0-0.176-0.063-0.326-0.187-0.45s-0.273-0.186-0.449-0.186
		S1244.953-280.592,1244.833-280.468z M1249.717-281.542h-0.828l-3.863,7.86h0.827L1249.717-281.542z M1248.391-274.024
		c-0.308-0.308-0.462-0.686-0.462-1.135c0-0.447,0.154-0.828,0.462-1.14c0.309-0.312,0.687-0.468,1.135-0.468
		c0.439,0,0.817,0.158,1.134,0.474c0.315,0.316,0.474,0.694,0.474,1.133c0,0.449-0.156,0.827-0.468,1.135
		c-0.313,0.308-0.692,0.462-1.14,0.462C1249.077-273.562,1248.699-273.716,1248.391-274.024z M1248.902-275.159
		c0,0.185,0.058,0.334,0.174,0.451c0.115,0.115,0.266,0.174,0.45,0.174c0.176,0,0.325-0.061,0.449-0.181s0.187-0.268,0.187-0.444
		s-0.063-0.325-0.187-0.449c-0.124-0.124-0.273-0.186-0.449-0.186c-0.177,0-0.324,0.062-0.444,0.186
		C1248.962-275.484,1248.902-275.335,1248.902-275.159z"/>
</g>
<g>
	<g>
		<path fill="#231F20" d="M855.371,515.748c0-1.172-0.264-2.344-0.791-3.516c-0.527-1.172-1.289-2.227-2.285-3.164
			s-2.188-1.699-3.574-2.285c-1.387-0.586-2.921-0.879-4.6-0.879c-1.445,0-2.822,0.245-4.131,0.732
			c-1.31,0.489-2.461,1.143-3.457,1.963c-0.996,0.82-1.787,1.768-2.373,2.842c-0.586,1.075-0.879,2.9-0.879,5.479l-18.223-0.117
			c0.038-3.789,0.762-7.402,2.168-10.84c1.406-3.437,3.369-6.464,5.889-9.082c2.52-2.617,5.557-4.688,9.111-6.211
			c3.554-1.523,7.519-2.285,11.894-2.285c4.14,0,8.007,0.713,11.602,2.139c3.594,1.426,6.718,3.35,9.375,5.771
			c2.656,2.422,4.736,5.215,6.24,8.379c1.503,3.164,2.256,6.485,2.256,9.961c0,3.79-0.782,7.236-2.344,10.342
			c-1.563,3.106-3.691,5.616-6.387,7.529c1.406,0.782,2.715,1.816,3.926,3.106c1.21,1.289,2.275,2.774,3.193,4.453
			c0.917,1.68,1.641,3.516,2.168,5.508c0.527,1.992,0.791,4.083,0.791,6.27c0,3.829-0.782,7.461-2.344,10.898
			c-1.563,3.438-3.721,6.456-6.475,9.053c-2.754,2.598-6.006,4.658-9.756,6.182c-3.75,1.523-7.793,2.285-12.129,2.285
			c-4.102,0-7.92-0.645-11.455-1.934c-3.536-1.289-6.631-3.076-9.287-5.361c-2.657-2.285-4.796-4.98-6.416-8.086
			c-1.621-3.106-2.578-5.693-2.871-7.764c-0.293-2.07-0.46-4.219-0.498-6.445h18.398c0.234,4.102,1.415,7.119,3.545,9.053
			c2.129,1.934,5.068,2.9,8.818,2.9c1.679,0,3.252-0.283,4.717-0.85c1.465-0.566,2.744-1.328,3.838-2.285
			c1.093-0.957,1.963-2.08,2.607-3.369c0.644-1.289,0.967-2.675,0.967-4.16c0-1.562-0.284-3.018-0.85-4.365
			c-0.566-1.348-1.377-2.5-2.432-3.457c-1.055-0.957-2.344-1.708-3.867-2.256c-1.523-0.546-3.223-0.82-5.098-0.82h-8.203v-15.996
			h8.32c1.719,0,3.252-0.234,4.6-0.703c1.348-0.469,2.49-1.113,3.428-1.934c0.938-0.82,1.65-1.796,2.139-2.93
			C855.127,518.366,855.371,517.116,855.371,515.748z"/>
		<path fill="#231F20" d="M883.086,563.151h8.262v-56.66h-8.262v-16.113h36.563l26.191,64.102l24.316-64.102h37.09v16.113h-8.262
			v56.66h8.144v16.055h-33.223v-16.055H980v-51.094l-26.602,66.094h-16.465l-27.07-64.336v49.336h6.621v16.055h-33.398V563.151z"/>
		<path fill="#231F20" d="M1019.844,536.256h21.27v-21.269h17.402v21.269h21.328v17.402h-21.328v21.328h-17.402v-21.328h-21.27
			V536.256z"/>
		<path fill="#231F20" d="M802.899,600.663h24.864c2.759,0,5.294,0.358,7.606,1.075c2.313,0.717,4.313,1.771,6.003,3.164
			c1.69,1.393,3.002,3.13,3.935,5.212c0.933,2.083,1.399,4.476,1.399,7.179c0,2.245-0.46,4.36-1.379,6.348
			c-0.92,1.988-2.218,3.726-3.894,5.212c-1.678,1.487-3.685,2.664-6.023,3.529c-2.34,0.866-4.942,1.298-7.809,1.298H816.69v21.497
			h6.166v6.977h-19.957v-6.977h5.841V607.68h-5.841V600.663z M816.69,607.68v19.348h11.073c1.542,0,2.954-0.209,4.239-0.629
			c1.284-0.419,2.393-1.034,3.326-1.846c0.933-0.811,1.662-1.825,2.19-3.042c0.527-1.217,0.791-2.623,0.791-4.218
			c0-3.028-0.919-5.388-2.758-7.078c-1.839-1.689-4.773-2.535-8.802-2.535H816.69z"/>
		<path fill="#231F20" d="M883.09,631.327c-1.136-2.028-2.576-3.515-4.32-4.462c-1.744-0.946-3.766-1.419-6.063-1.419
			c-1.759,0-3.407,0.365-4.949,1.095c-1.541,0.73-2.887,1.771-4.035,3.123c-1.15,1.353-2.056,2.995-2.718,4.928
			c-0.663,1.934-0.994,4.09-0.994,6.47c0,2.352,0.331,4.476,0.994,6.368c0.662,1.893,1.575,3.508,2.737,4.847
			c1.163,1.338,2.508,2.366,4.036,3.083c1.527,0.717,3.17,1.075,4.929,1.075c2.596,0,4.852-0.628,6.773-1.886
			c1.92-1.257,3.447-3.102,4.583-5.537l6.247,3.083c-0.811,1.73-1.813,3.285-3.002,4.664c-1.19,1.379-2.535,2.555-4.036,3.529
			c-1.5,0.973-3.15,1.724-4.948,2.251c-1.799,0.527-3.698,0.791-5.698,0.791c-2.921,0-5.618-0.547-8.093-1.643
			c-2.474-1.095-4.61-2.63-6.408-4.604c-1.799-1.974-3.198-4.326-4.198-7.058c-1.001-2.731-1.501-5.719-1.501-8.964
			c0-3.245,0.527-6.232,1.582-8.964c1.055-2.73,2.501-5.076,4.34-7.037c1.839-1.96,3.988-3.495,6.449-4.604
			c2.461-1.108,5.097-1.663,7.91-1.663c2.649,0,5.157,0.46,7.523,1.379c2.366,0.919,4.441,2.312,6.227,4.178h4.259v6.977H883.09z"/>
		<path fill="#231F20" d="M921.561,628.509c-0.527-0.797-1.21-1.446-2.048-1.947c-0.839-0.5-1.771-0.865-2.799-1.095
			c-1.028-0.229-2.028-0.345-3.002-0.345c-1.081,0-2.075,0.122-2.98,0.365c-0.906,0.244-1.684,0.595-2.333,1.055
			c-0.649,0.46-1.155,1.021-1.521,1.683c-0.365,0.663-0.548,1.399-0.548,2.211c0,1.406,0.426,2.521,1.277,3.346
			c0.853,0.825,2.278,1.589,4.279,2.292l8.072,2.839c3.461,1.163,5.989,2.745,7.585,4.746c1.595,2.001,2.393,4.394,2.393,7.18
			c0,1.866-0.372,3.576-1.115,5.131c-0.744,1.555-1.799,2.88-3.164,3.975c-1.365,1.095-3.008,1.947-4.928,2.555
			c-1.921,0.608-4.057,0.913-6.409,0.913c-3.271,0-5.935-0.527-7.99-1.582c-2.056-1.054-3.637-2.447-4.746-4.178h-4.218v-6.977
			h8.396c0,1.163,0.249,2.157,0.75,2.981c0.5,0.825,1.162,1.495,1.987,2.008c0.824,0.514,1.758,0.892,2.799,1.136
			c1.041,0.243,2.103,0.365,3.185,0.365c1.054,0,2.068-0.128,3.042-0.385c0.973-0.256,1.831-0.635,2.575-1.136
			c0.743-0.5,1.332-1.102,1.765-1.805c0.432-0.703,0.648-1.501,0.648-2.393c0-1.352-0.44-2.501-1.317-3.448
			c-0.88-0.946-2.373-1.798-4.482-2.556l-8.031-3.001c-3.272-1.162-5.699-2.643-7.28-4.441c-1.582-1.798-2.373-4.049-2.373-6.753
			c0-1.785,0.331-3.434,0.993-4.949c0.663-1.514,1.623-2.819,2.88-3.914c1.258-1.095,2.792-1.953,4.604-2.576
			c1.811-0.622,3.88-0.933,6.205-0.933c3.002,0,5.517,0.419,7.545,1.257c2.028,0.838,3.854,2.271,5.476,4.299h3.935v6.977h-8.315
			C922.352,630.273,922.089,629.306,921.561,628.509z"/>
		<path fill="#231F20" d="M960.156,598.513h7.058l-24.337,64.817h-7.058L960.156,598.513z"/>
		<path fill="#231F20" d="M972.769,620.133h13.386v4.908h0.081c0.919-0.784,1.886-1.521,2.9-2.21
			c1.014-0.69,2.075-1.291,3.184-1.805c1.108-0.513,2.265-0.919,3.468-1.217c1.203-0.297,2.454-0.446,3.752-0.446
			c3.028,0,5.639,0.561,7.829,1.683c2.19,1.123,3.88,2.873,5.07,5.252c1.027-0.919,2.108-1.805,3.244-2.657
			c1.136-0.852,2.318-1.588,3.55-2.211c1.23-0.622,2.521-1.122,3.873-1.5c1.352-0.378,2.759-0.568,4.219-0.568
			c2.271,0,4.313,0.311,6.125,0.933c1.811,0.623,3.353,1.569,4.623,2.839c1.271,1.271,2.237,2.9,2.9,4.888
			c0.662,1.987,0.994,4.333,0.994,7.038v20.118h5.841v6.977h-19.632v-6.977h5.922v-19.185c0-3.218-0.812-5.658-2.434-7.321
			s-3.962-2.495-7.018-2.495c-1.812,0-3.664,0.433-5.557,1.298c-1.893,0.866-3.516,1.96-4.867,3.285v24.418h5.801v6.977h-19.592
			v-6.977h5.922v-19.185c0-3.218-0.818-5.658-2.454-7.321s-3.981-2.495-7.037-2.495c-1.758,0-3.528,0.42-5.314,1.257
			c-1.784,0.839-3.475,1.88-5.07,3.123v24.621h5.922v6.977h-19.632v-6.977h5.841v-28.068h-5.841V620.133z"/>
		<path fill="#231F20" d="M1055.352,641.143c0.026-3.326,0.561-6.354,1.603-9.086c1.04-2.731,2.494-5.076,4.36-7.037
			c1.865-1.961,4.082-3.468,6.651-4.523c2.569-1.055,5.395-1.582,8.478-1.582c3.109,0,5.956,0.527,8.538,1.582
			c2.582,1.054,4.793,2.549,6.632,4.482c1.839,1.934,3.271,4.266,4.3,6.997c1.027,2.732,1.541,5.76,1.541,9.086
			c0,3.272-0.514,6.281-1.541,9.025c-1.028,2.745-2.461,5.104-4.3,7.078c-1.839,1.975-4.05,3.509-6.632,4.604
			s-5.429,1.643-8.538,1.643c-3.164,0-6.03-0.541-8.599-1.623c-2.569-1.081-4.773-2.602-6.611-4.563
			c-1.84-1.961-3.272-4.306-4.3-7.038C1055.906,647.458,1055.379,644.443,1055.352,641.143z M1063.343,641.143
			c0,2.407,0.345,4.583,1.034,6.53c0.69,1.947,1.637,3.604,2.84,4.969c1.203,1.366,2.596,2.42,4.178,3.164
			c1.582,0.744,3.266,1.115,5.05,1.115c1.866,0,3.604-0.365,5.212-1.095c1.608-0.73,3.008-1.778,4.198-3.143
			c1.189-1.365,2.123-3.022,2.799-4.969c0.676-1.947,1.014-4.137,1.014-6.571c0-2.542-0.338-4.8-1.014-6.774
			c-0.676-1.974-1.603-3.623-2.778-4.948c-1.177-1.325-2.576-2.325-4.198-3.002c-1.622-0.676-3.366-1.014-5.232-1.014
			c-1.784,0-3.468,0.338-5.05,1.014c-1.582,0.676-2.975,1.677-4.178,3.002c-1.203,1.325-2.149,2.975-2.84,4.948
			C1063.687,636.344,1063.343,638.602,1063.343,641.143z"/>
	</g>
</g>
<g>
	<g>
		<g>
			<g>
				<path fill="#FFFFFF" d="M16.35-15.019c-2.579,0-4.821-0.875-6.083-2.177H8.312c-0.12,0.394-0.19,0.798-0.19,1.214
					c0,3.186,3.691,5.779,8.228,5.779c4.536,0,8.225-2.593,8.225-5.779c0-0.416-0.068-0.82-0.189-1.214h-1.954
					C21.169-15.893,18.928-15.019,16.35-15.019"/>
				<path fill="#B3B3B3" d="M16.35-9.872c-4.719,0-8.559-2.741-8.559-6.11c0-0.426,0.069-0.866,0.205-1.311l0.072-0.234h2.34
					l0.098,0.101c1.26,1.3,3.445,2.077,5.845,2.077c2.4,0,4.584-0.776,5.844-2.077l0.098-0.101h2.339l0.072,0.234
					c0.135,0.44,0.204,0.881,0.204,1.311C24.906-12.613,21.067-9.872,16.35-9.872z M8.564-16.865
					c-0.075,0.302-0.111,0.592-0.111,0.883c0,3.004,3.542,5.448,7.896,5.448c4.353,0,7.894-2.444,7.894-5.448
					c0-0.288-0.037-0.584-0.11-0.883h-1.564c-1.394,1.366-3.705,2.177-6.219,2.177c-2.515,0-4.826-0.812-6.22-2.177H8.564z"/>
			</g>
			<g>
				<path fill="#FFFFFF" d="M-17.275,2.562l11.688,8.874l1.32-1.681L-15.993,0.83C-16.778,1.882-17.275,2.562-17.275,2.562"/>
				<path fill="#B3B3B3" d="M-5.528,11.898l-12.207-9.268l0.192-0.263c0,0,0.498-0.681,1.285-1.735l0.2-0.268L-3.8,9.696
					L-5.528,11.898z M-16.816,2.496l11.169,8.48l0.911-1.16l-11.191-8.52C-16.325,1.83-16.632,2.246-16.816,2.496z"/>
			</g>
			<g>
				<path fill="#FFFFFF" d="M36.966,9.756l1.321,1.681l11.689-8.874c0,0-0.499-0.68-1.284-1.732L36.966,9.756z"/>
				<path fill="#B3B3B3" d="M38.227,11.897l-1.73-2.201l12.259-9.332l0.2,0.268c0.786,1.053,1.286,1.734,1.286,1.734l0.193,0.263
					L38.227,11.897z M37.434,9.816l0.912,1.16l11.17-8.48c-0.184-0.25-0.492-0.666-0.889-1.2L37.434,9.816z"/>
			</g>
			<g>
				<path fill="#FFFFFF" d="M39.246-10.665c-3.522-3.349-10.408-6.532-12.809-6.532h-0.1c0.082,0.398,0.161,0.801,0.161,1.213
					c0,4.295-4.554,7.788-10.149,7.788c-5.597,0-10.148-3.493-10.148-7.788c0-0.412,0.078-0.815,0.16-1.213h-0.1
					c-2.403,0-9.286,3.183-12.809,6.532c-2.2,2.091-5.833,6.727-8.256,9.915l11.76,8.949l1.141-1.449l-1.166,32.649h18.457h3.25
					l16.505-17.184L34.602,6.75l1.142,1.449L47.5-0.75C45.081-3.938,41.445-8.574,39.246-10.665"/>
				<path fill="#B3B3B3" d="M18.779,39.73H-3.412L-2.27,7.752L-2.985,8.66l-12.282-9.347l0.2-0.263
					c2.59-3.408,6.13-7.901,8.291-9.955c3.523-3.348,10.444-6.623,13.038-6.623h0.506L6.686-17.13
					c-0.084,0.407-0.153,0.775-0.153,1.146c0,4.112,4.404,7.457,9.817,7.457c5.413,0,9.818-3.345,9.818-7.457
					c0-0.391-0.082-0.793-0.155-1.147l-0.081-0.397h0.506c2.595,0,9.515,3.274,13.037,6.623c2.181,2.073,5.712,6.558,8.29,9.955
					l0.2,0.263L35.686,8.66l-0.718-0.91l0.51,14.594L18.779,39.73z M-2.726,39.067h21.222l16.31-16.981L34.235,5.75l1.567,1.988
					l11.234-8.551c-2.136-2.806-5.826-7.528-8.018-9.612c-3.454-3.284-9.819-6.183-12.276-6.424
					c0.049,0.273,0.087,0.565,0.087,0.865c0,4.477-4.701,8.12-10.48,8.12c-5.778,0-10.479-3.642-10.479-8.12
					c0-0.295,0.035-0.576,0.086-0.865C3.5-16.607-2.865-13.709-6.319-10.425c-2.074,1.971-5.466,6.259-8.02,9.612l11.237,8.551
					l1.566-1.99L-2.726,39.067z"/>
			</g>
		</g>
	</g>
</g>
<rect x="29.676" y="-23.786" transform="matrix(0.7192 0.6949 -0.6949 0.7192 28.0619 -13.6146)" fill="#8BC541" width="2.393" height="103.387"/>
<g>
	<path fill-rule="evenodd" clip-rule="evenodd" fill="#B3B3B3" d="M65.17,44.275c-0.123,0.937-0.265,1.873-0.365,2.812
		c-0.602,5.654-0.415,11.29,0.196,16.94c0.533,4.928,0.809,9.883,1.213,14.825c0.044,0.536-0.089,0.78-0.67,0.888
		c-4.623,0.86-9.263,1.591-13.966,1.835c-0.742,0.038-1.49-0.033-2.234-0.067c-0.129-0.006-0.351-0.062-0.366-0.131
		c-0.147-0.669-0.672-0.494-1.096-0.505c-4.355-0.105-8.703-0.287-13.007-1.036c-1.149-0.2-1.195-0.186-1.115-1.332
		c0.247-3.506,0.503-7.013,0.804-10.514c0.495-5.75,1.304-11.485,0.861-17.28c-0.152-1.996-0.377-3.985-0.577-5.977
		c-0.018-0.178-0.096-0.349-0.25-0.527c-0.733,3.685-1.64,7.346-2.149,11.062c-0.418,3.058-0.363,6.18-0.522,9.274
		c-0.18,3.489-0.356,6.979-0.565,10.466c-0.013,0.219-0.268,0.582-0.448,0.607c-2.03,0.274-4.044,0.18-5.988-0.534
		c-0.977-0.358-1.015-0.479-0.913-1.494c0.064-0.648,0.049-1.306,0.142-1.949c0.064-0.442,0.265-0.862,0.384-1.297
		c0.066-0.24,0.117-0.491,0.126-0.739c0.193-5.354,0.318-10.713,0.596-16.062c0.135-2.574,0.538-5.136,0.856-7.699
		c0.431-3.462,0.879-6.923,1.358-10.379c0.239-1.726,0.489-3.458,0.87-5.156c0.47-2.099,1.76-3.657,3.559-4.814
		c1.855-1.192,3.956-1.736,6.053-2.246c2.038-0.496,3.674-1.528,4.929-3.193c0.155-0.204,0.338-0.387,0.485-0.597
		c0.959-1.368,2.291-2.151,3.938-2.203c1.925-0.061,3.858-0.003,5.784,0.085c1.326,0.06,2.377,0.743,3.202,1.772
		c0.204,0.255,0.419,0.5,0.61,0.764c1.364,1.878,3.206,2.967,5.457,3.491c1.33,0.31,2.645,0.731,3.915,1.233
		c3.316,1.311,5.204,3.736,5.654,7.32c0.791,6.3,1.789,12.576,2.441,18.889c0.473,4.579,0.539,9.202,0.762,13.806
		c0.085,1.745,0.102,3.493,0.15,5.24c0.004,0.116-0.025,0.263,0.033,0.342c0.88,1.2,0.332,2.63,0.638,3.922
		c0.11,0.466-0.224,0.663-0.588,0.818c-1.756,0.75-3.6,0.883-5.477,0.787c-0.233-0.012-0.465-0.071-0.696-0.064
		c-0.496,0.018-0.622-0.235-0.641-0.689c-0.056-1.349-0.162-2.697-0.232-4.045c-0.279-5.373-0.472-10.753-0.868-16.117
		c-0.148-1.999-0.76-3.964-1.167-5.942c-0.314-1.524-0.64-3.045-0.961-4.567C65.273,44.29,65.221,44.282,65.17,44.275z
		 M25.339,70.897c1.629,0.142,3.216,0.28,4.804,0.416c0.531,0.046,0.711-0.193,0.736-0.731c0.196-4.189,0.422-8.376,0.64-12.563
		c0.063-1.209-0.01-2.445,0.219-3.623c0.771-3.969,1.591-7.931,2.528-11.863c0.25-1.048,0.036-1.836-0.448-2.666
		c-0.117-0.2-0.277-0.377-0.386-0.581c-0.062-0.118-0.061-0.271-0.089-0.408c0.05-0.031,0.102-0.063,0.152-0.094
		c0.15,0.147,0.353,0.268,0.441,0.446c0.376,0.768,0.854,1.521,1.048,2.338c0.906,3.821,1.267,7.725,1.243,11.636
		c-0.021,3.44-0.286,6.882-0.531,10.317c-0.258,3.599-0.63,7.19-0.935,10.786c-0.1,1.176-0.149,2.357-0.224,3.592
		c4.868,0.697,9.661,1.254,14.548,1.23c0.018-0.3,0.042-0.503,0.042-0.708c0-12.631-0.018-25.261,0.012-37.893
		c0.006-2.79,0.177-5.58,0.289-8.37c0.02-0.503,0.323-1.082,0.158-1.488c-0.797-1.96-2.025-3.573-4.168-4.207
		c-0.279-0.083-0.793,0.051-0.957,0.267c-0.514,0.678-0.915,1.443-1.355,2.176c-0.118,0.198-0.223,0.405-0.425,0.774
		c-1.098-2.448-1.536-4.769-0.978-7.325c-1.544,1.16-3.328,1.459-5.023,2.017c-1.536,0.505-3.075,1.081-4.487,1.855
		c-1.703,0.933-2.784,2.488-3.162,4.407c-0.411,2.098-0.722,4.218-1.016,6.336c-0.432,3.111-0.828,6.227-1.207,9.345
		c-0.322,2.656-0.726,5.312-0.864,7.98C25.665,59.736,25.538,65.187,25.339,70.897z M57.694,29.1
		c-0.248-0.331-0.369-0.519-0.516-0.685c-0.539-0.608-1.053-1.244-1.639-1.802c-0.499-0.475-1.496-0.206-1.711,0.462
		c-0.887,2.745-1.86,5.514-1.872,8.412c-0.058,14.516-0.016,29.033-0.007,43.549c0,0.221,0.022,0.442,0.041,0.821
		c4.528-0.642,8.956-1.27,13.424-1.904c-0.071-1.077-0.117-1.982-0.192-2.884c-0.255-3.086-0.521-6.17-0.783-9.255
		c-0.248-2.922-0.588-5.84-0.724-8.767c-0.197-4.242,0.075-8.475,0.683-12.679c0.246-1.701,0.479-3.419,1.489-4.89
		c0.184-0.268,0.413-0.504,0.621-0.755c0.072,0.045,0.144,0.091,0.216,0.136c-0.072,0.174-0.131,0.356-0.218,0.522
		c-0.311,0.596-0.647,1.179-0.941,1.782c-0.083,0.172-0.111,0.411-0.071,0.599c0.546,2.567,1.114,5.129,1.668,7.694
		c0.372,1.726,0.897,3.44,1.06,5.186c0.28,3.012,0.328,6.045,0.483,9.069c0.12,2.326,0.261,4.65,0.374,6.977
		c0.019,0.386,0.11,0.604,0.543,0.624c1.687,0.079,3.332-0.13,4.841-0.586c0-1.069,0.023-2.068-0.004-3.064
		c-0.186-6.866-0.25-13.736-1.242-20.556c-0.719-4.948-1.32-9.913-2.002-14.867c-0.203-1.477-0.514-2.929-1.445-4.172
		c-1.306-1.743-3.136-2.65-5.133-3.313c-2.219-0.736-4.635-0.946-6.666-2.631C58.743,24.545,58.653,26.74,57.694,29.1z
		 M53.347,26.837c-1.444,0.194-2.219,1.049-2.674,2.257c-0.875,2.322-1.108,4.756-1.112,7.205
		c-0.017,14.262-0.012,28.524,0.001,42.786c0.002,2.001-0.389,1.714,1.781,1.728c0.038,0,0.077-0.04,0.17-0.091
		c0-0.2,0.002-0.428,0-0.656c-0.025-2.959-0.064-5.919-0.072-8.877c-0.029-10.114-0.059-20.228-0.061-30.341
		c-0.001-3.094-0.096-6.202,0.696-9.238C52.484,30.042,52.909,28.479,53.347,26.837z M49.815,30.027
		c0.109-0.211,0.137-0.25,0.15-0.294c0.574-2.014,1.697-3.385,3.973-3.465c0.193-0.006,0.442-0.25,0.555-0.447
		c0.626-1.086,0.914-2.265,0.95-3.523c0.014-0.511-0.178-0.729-0.64-0.775c-1.27-0.126-2.542-0.357-3.811-0.341
		c-2.039,0.025-4.076,0.212-6.114,0.337c-0.491,0.03-0.733,0.242-0.671,0.802c0.097,0.887,0.358,1.682,1.013,2.305
		C46.914,26.237,48.738,27.732,49.815,30.027z M55.274,20.98c-0.022-1.785-0.562-2.751-2.056-2.859
		c-2.165-0.158-4.363-0.18-6.523,0.012c-1.728,0.154-2.339,1.148-2.339,2.859c1.797-0.098,3.6-0.274,5.404-0.276
		C51.583,20.714,53.407,20.883,55.274,20.98z M30.812,71.915c-2.016-0.223-3.933-0.436-5.874-0.651
		c-0.05,0.775-0.13,1.63-0.139,2.487c-0.002,0.209,0.183,0.541,0.364,0.612c1.768,0.702,3.613,0.674,5.48,0.565
		c0.059-0.971,0.116-1.872,0.169-2.775C30.817,72.04,30.812,71.927,30.812,71.915z M69.294,74.887
		c1.773,0.243,4.037,0.06,5.339-0.473c0.22-0.09,0.508-0.379,0.508-0.576c0.001-0.898-0.09-1.796-0.141-2.572
		c-1.97,0.218-3.891,0.43-5.876,0.649C69.176,72.817,69.235,73.832,69.294,74.887z M44.042,19.921
		c-0.947,1.024-1.97,1.94-2.054,3.458c-0.098,1.747,0,3.446,0.736,5.149c0.237-0.434,0.401-0.794,0.619-1.119
		c0.632-0.941,1.202-2.034,2.742-1.293C43.908,24.496,43.2,22.466,44.042,19.921z M55.511,19.423
		c0.481,2.766,0.638,3.583-0.18,5.776c0.861,1.06,1.569,1.93,2.277,2.802C58.53,25.039,58.09,21.76,55.511,19.423z M34.423,78.997
		c4.891,0.892,9.756,1.075,14.669,1.147c0-0.27,0-0.464,0-0.507c-4.878-0.419-9.706-0.834-14.582-1.252
		C34.494,78.493,34.466,78.694,34.423,78.997z M51.992,80.82c4.56-0.302,9.023-0.978,13.515-1.84
		c-0.036-0.286-0.066-0.52-0.089-0.702c-4.519,0.639-8.955,1.266-13.426,1.898C51.992,80.36,51.992,80.556,51.992,80.82z"/>
	<path fill-rule="evenodd" clip-rule="evenodd" fill="#FFFFFF" d="M25.339,70.897c0.199-5.71,0.326-11.161,0.607-16.603
		c0.138-2.668,0.542-5.324,0.864-7.98c0.378-3.118,0.774-6.234,1.207-9.345c0.294-2.118,0.605-4.238,1.016-6.336
		c0.377-1.919,1.459-3.474,3.162-4.407c1.412-0.773,2.952-1.349,4.487-1.855c1.694-0.558,3.478-0.857,5.023-2.017
		c-0.558,2.555-0.12,4.877,0.978,7.325c0.202-0.37,0.306-0.577,0.425-0.774c0.44-0.734,0.84-1.498,1.355-2.176
		c0.164-0.216,0.678-0.35,0.957-0.267c2.143,0.634,3.371,2.248,4.168,4.207c0.166,0.406-0.138,0.986-0.158,1.488
		c-0.112,2.79-0.283,5.58-0.289,8.37c-0.031,12.631-0.012,25.262-0.012,37.893c0,0.204-0.024,0.408-0.042,0.708
		c-4.887,0.024-9.68-0.534-14.548-1.23c0.075-1.235,0.124-2.415,0.224-3.592c0.305-3.596,0.677-7.187,0.935-10.786
		c0.245-3.435,0.511-6.877,0.531-10.317c0.024-3.911-0.337-7.814-1.243-11.636c-0.194-0.817-0.673-1.569-1.048-2.338
		c-0.088-0.178-0.29-0.299-0.441-0.446c-0.05,0.031-0.101,0.062-0.152,0.094c0.028,0.137,0.027,0.29,0.089,0.408
		c0.109,0.205,0.268,0.381,0.386,0.581c0.484,0.83,0.698,1.618,0.448,2.666c-0.937,3.932-1.757,7.895-2.528,11.863
		c-0.229,1.177-0.156,2.413-0.219,3.623c-0.218,4.188-0.444,8.375-0.64,12.563c-0.025,0.538-0.205,0.777-0.736,0.731
		C28.555,71.177,26.968,71.039,25.339,70.897z"/>
	<path fill-rule="evenodd" clip-rule="evenodd" fill="#FFFFFF" d="M57.694,29.1c0.959-2.36,1.05-4.554,0.279-6.979
		c2.031,1.685,4.447,1.895,6.666,2.631c1.997,0.663,3.827,1.57,5.133,3.313c0.931,1.243,1.242,2.695,1.445,4.172
		c0.681,4.954,1.282,9.919,2.002,14.867c0.992,6.82,1.055,13.691,1.242,20.556c0.027,0.996,0.004,1.995,0.004,3.064
		c-1.509,0.457-3.154,0.665-4.841,0.586c-0.433-0.02-0.524-0.238-0.543-0.624c-0.113-2.327-0.254-4.651-0.374-6.977
		c-0.155-3.024-0.203-6.057-0.483-9.069c-0.163-1.746-0.688-3.46-1.06-5.186c-0.554-2.565-1.122-5.128-1.668-7.694
		c-0.04-0.188-0.012-0.426,0.071-0.599c0.294-0.604,0.63-1.187,0.941-1.782c0.088-0.166,0.146-0.348,0.218-0.522
		c-0.072-0.045-0.144-0.091-0.216-0.136c-0.208,0.251-0.437,0.488-0.621,0.755c-1.01,1.471-1.243,3.189-1.489,4.89
		c-0.608,4.205-0.881,8.437-0.683,12.679c0.136,2.927,0.476,5.845,0.724,8.767c0.262,3.085,0.528,6.17,0.783,9.255
		c0.075,0.902,0.121,1.807,0.192,2.884c-4.468,0.634-8.897,1.262-13.424,1.904c-0.019-0.379-0.041-0.6-0.041-0.821
		c-0.009-14.516-0.051-29.033,0.007-43.549c0.012-2.898,0.985-5.667,1.872-8.412c0.215-0.668,1.212-0.937,1.711-0.462
		c0.587,0.558,1.101,1.194,1.639,1.802C57.325,28.581,57.446,28.769,57.694,29.1z"/>
	<path fill-rule="evenodd" clip-rule="evenodd" fill="#FFFFFF" d="M53.347,26.837c-0.438,1.642-0.862,3.205-1.271,4.772
		c-0.792,3.036-0.697,6.144-0.696,9.238c0.002,10.113,0.032,20.227,0.061,30.341c0.008,2.959,0.047,5.919,0.072,8.877
		c0.002,0.228,0,0.456,0,0.656c-0.092,0.051-0.131,0.091-0.17,0.091c-2.17-0.014-1.779,0.274-1.781-1.728
		c-0.013-14.262-0.018-28.524-0.001-42.786c0.003-2.449,0.237-4.883,1.112-7.205C51.128,27.885,51.902,27.031,53.347,26.837z
		 M51.352,73.49c-0.003-0.111-0.006-0.223-0.009-0.335c-0.291-0.187-0.595-0.536-0.868-0.513c-0.25,0.021-0.608,0.414-0.665,0.695
		c-0.088,0.429,0.257,0.792,0.698,0.723C50.812,74.013,51.072,73.69,51.352,73.49z M50.11,31.683
		c0.001,0.111,0.002,0.222,0.003,0.333c0.27,0.185,0.52,0.481,0.813,0.531c0.46,0.079,0.807-0.256,0.71-0.705
		c-0.061-0.281-0.422-0.676-0.667-0.691C50.695,31.134,50.397,31.49,50.11,31.683z M50.357,39.998
		c-0.19,0.265-0.491,0.509-0.543,0.799c-0.08,0.446,0.233,0.815,0.688,0.728c0.275-0.053,0.631-0.387,0.701-0.659
		C51.321,40.419,50.989,40.153,50.357,39.998z M51.351,49.129c-0.152-0.624-0.407-0.969-0.861-0.856
		c-0.274,0.068-0.616,0.418-0.67,0.692c-0.088,0.449,0.279,0.776,0.724,0.707C50.834,49.625,51.083,49.319,51.351,49.129z
		 M51.354,57.219c-0.176-0.617-0.454-0.949-0.894-0.828c-0.271,0.075-0.598,0.449-0.641,0.729c-0.069,0.45,0.315,0.768,0.752,0.686
		C50.858,57.752,51.095,57.424,51.354,57.219z M50.509,65.861c0.456-0.033,0.798-0.287,0.691-0.74
		c-0.066-0.275-0.438-0.66-0.676-0.662c-0.245-0.002-0.638,0.365-0.706,0.635C49.711,65.523,50.018,65.824,50.509,65.861z"/>
	<path fill-rule="evenodd" clip-rule="evenodd" fill="#FFFFFF" d="M49.815,30.027c-1.077-2.295-2.901-3.79-4.595-5.4
		c-0.655-0.623-0.916-1.418-1.013-2.305c-0.061-0.561,0.18-0.772,0.671-0.802c2.037-0.126,4.074-0.312,6.114-0.337
		c1.268-0.016,2.541,0.215,3.811,0.341c0.462,0.046,0.654,0.264,0.64,0.775c-0.036,1.258-0.324,2.437-0.95,3.523
		c-0.113,0.197-0.362,0.44-0.555,0.447c-2.276,0.08-3.398,1.451-3.973,3.465C49.952,29.777,49.924,29.815,49.815,30.027z"/>
	<path fill-rule="evenodd" clip-rule="evenodd" fill="#FFFFFF" d="M55.274,20.98c-1.867-0.096-3.691-0.266-5.515-0.264
		c-1.803,0.002-3.606,0.177-5.404,0.276c0.001-1.71,0.611-2.705,2.339-2.859c2.16-0.192,4.358-0.17,6.523-0.012
		C54.712,18.229,55.252,19.195,55.274,20.98z"/>
	<path fill-rule="evenodd" clip-rule="evenodd" fill="#FFFFFF" d="M30.812,71.915c0,0.011,0.006,0.125-0.001,0.239
		c-0.053,0.902-0.11,1.804-0.169,2.775c-1.868,0.109-3.712,0.137-5.48-0.565c-0.18-0.072-0.366-0.403-0.364-0.612
		c0.009-0.857,0.09-1.712,0.139-2.487C26.879,71.48,28.796,71.692,30.812,71.915z M25.629,73.104
		c0.109,0.001,0.219,0.002,0.328,0.003c0.19-0.265,0.493-0.51,0.545-0.8c0.081-0.445-0.219-0.758-0.694-0.755
		c-0.462,0.002-0.79,0.278-0.703,0.744C25.16,72.588,25.447,72.837,25.629,73.104z"/>
	<path fill-rule="evenodd" clip-rule="evenodd" fill="#FFFFFF" d="M69.294,74.887c-0.059-1.056-0.118-2.07-0.17-2.972
		c1.985-0.219,3.906-0.431,5.876-0.649c0.051,0.776,0.142,1.674,0.141,2.572c0,0.197-0.289,0.486-0.508,0.576
		C73.331,74.948,71.067,75.131,69.294,74.887z M74.149,72.996c0.449-0.035,0.789-0.293,0.678-0.745
		c-0.066-0.274-0.449-0.657-0.685-0.654c-0.252,0.003-0.648,0.371-0.71,0.641C73.338,72.66,73.645,72.968,74.149,72.996z"/>
	<path fill-rule="evenodd" clip-rule="evenodd" fill="#FFFFFF" d="M44.042,19.921c-0.843,2.545-0.134,4.575,2.044,6.194
		c-1.541-0.742-2.11,0.352-2.742,1.293c-0.218,0.325-0.382,0.685-0.619,1.119c-0.736-1.703-0.835-3.401-0.736-5.149
		C42.073,21.861,43.095,20.945,44.042,19.921z"/>
	<path fill-rule="evenodd" clip-rule="evenodd" fill="#FFFFFF" d="M55.511,19.423c2.579,2.338,3.02,5.616,2.097,8.578
		c-0.708-0.872-1.416-1.743-2.277-2.802C56.149,23.006,55.992,22.189,55.511,19.423z"/>
	<path fill-rule="evenodd" clip-rule="evenodd" fill="#FFFFFF" d="M34.423,78.997c0.043-0.304,0.072-0.504,0.087-0.612
		c4.876,0.419,9.703,0.834,14.582,1.252c0,0.043,0,0.236,0,0.507C44.178,80.072,39.314,79.89,34.423,78.997z"/>
	<path fill-rule="evenodd" clip-rule="evenodd" fill="#FFFFFF" d="M51.992,80.82c0-0.264,0-0.46,0-0.645
		c4.471-0.632,8.907-1.259,13.426-1.898c0.023,0.183,0.053,0.416,0.089,0.702C61.015,79.842,56.552,80.519,51.992,80.82z"/>
	<path fill-rule="evenodd" clip-rule="evenodd" d="M51.352,73.49c-0.279,0.2-0.54,0.523-0.844,0.57
		c-0.441,0.069-0.786-0.294-0.698-0.723c0.057-0.28,0.415-0.674,0.665-0.695c0.274-0.023,0.578,0.326,0.868,0.513
		C51.346,73.266,51.349,73.378,51.352,73.49z M50.547,72.805c-0.197,0.217-0.434,0.371-0.415,0.481
		c0.029,0.173,0.231,0.316,0.36,0.472c0.15-0.141,0.369-0.259,0.423-0.43C50.947,73.225,50.722,73.042,50.547,72.805z"/>
	<path fill-rule="evenodd" clip-rule="evenodd" d="M50.11,31.683c0.287-0.193,0.585-0.549,0.859-0.532
		c0.245,0.015,0.606,0.41,0.667,0.691c0.097,0.449-0.25,0.785-0.71,0.705c-0.293-0.05-0.544-0.345-0.813-0.531
		C50.111,31.905,50.111,31.794,50.11,31.683z M50.897,31.284c-0.166,0.25-0.376,0.434-0.342,0.545
		c0.052,0.173,0.269,0.295,0.416,0.439c0.131-0.162,0.333-0.312,0.366-0.493C51.357,31.668,51.111,31.511,50.897,31.284z"/>
	<path fill-rule="evenodd" clip-rule="evenodd" d="M50.357,39.998c0.632,0.155,0.964,0.42,0.846,0.868
		c-0.071,0.273-0.426,0.607-0.701,0.659c-0.455,0.087-0.769-0.283-0.688-0.728C49.866,40.508,50.167,40.263,50.357,39.998z
		 M50.474,41.424c0.214-0.277,0.425-0.434,0.437-0.604c0.009-0.127-0.237-0.273-0.37-0.41c-0.145,0.143-0.364,0.265-0.411,0.434
		C50.097,40.963,50.299,41.147,50.474,41.424z"/>
	<path fill-rule="evenodd" clip-rule="evenodd" d="M51.351,49.129c-0.268,0.19-0.517,0.497-0.807,0.543
		c-0.444,0.07-0.812-0.257-0.724-0.707c0.054-0.274,0.396-0.625,0.67-0.692C50.943,48.16,51.198,48.504,51.351,49.129z
		 M50.536,48.372c-0.198,0.247-0.423,0.408-0.404,0.534c0.024,0.167,0.216,0.387,0.378,0.43c0.107,0.029,0.409-0.215,0.405-0.331
		C50.91,48.827,50.718,48.655,50.536,48.372z"/>
	<path fill-rule="evenodd" clip-rule="evenodd" d="M51.354,57.219c-0.259,0.205-0.495,0.533-0.784,0.587
		c-0.437,0.083-0.821-0.235-0.752-0.686c0.043-0.28,0.371-0.655,0.641-0.729C50.9,56.27,51.178,56.602,51.354,57.219z
		 M51.108,57.074c-0.287-0.186-0.459-0.379-0.635-0.383c-0.12-0.003-0.37,0.294-0.341,0.394c0.046,0.161,0.26,0.349,0.429,0.376
		C50.687,57.481,50.85,57.267,51.108,57.074z"/>
	<path fill-rule="evenodd" clip-rule="evenodd" d="M50.509,65.861c-0.492-0.037-0.798-0.338-0.691-0.767
		c0.067-0.27,0.461-0.637,0.706-0.635c0.238,0.002,0.61,0.387,0.676,0.662C51.307,65.574,50.965,65.828,50.509,65.861z
		 M50.528,65.724c0.185-0.281,0.378-0.452,0.386-0.63c0.005-0.116-0.294-0.366-0.399-0.338c-0.162,0.044-0.357,0.259-0.384,0.426
		C50.111,65.308,50.333,65.472,50.528,65.724z"/>
	<path fill-rule="evenodd" clip-rule="evenodd" d="M25.629,73.104c-0.182-0.268-0.47-0.516-0.524-0.808
		c-0.087-0.466,0.242-0.742,0.703-0.744c0.475-0.002,0.774,0.31,0.694,0.755c-0.052,0.29-0.355,0.535-0.545,0.8
		C25.848,73.106,25.738,73.105,25.629,73.104z M25.22,72.301c0.281,0.179,0.456,0.369,0.632,0.372
		c0.117,0.002,0.359-0.299,0.329-0.404c-0.046-0.161-0.265-0.351-0.431-0.375C25.625,71.877,25.465,72.103,25.22,72.301z"/>
	<path fill-rule="evenodd" clip-rule="evenodd" d="M74.149,72.996c-0.504-0.028-0.812-0.335-0.716-0.758
		c0.061-0.27,0.458-0.637,0.71-0.641c0.236-0.004,0.618,0.379,0.685,0.654C74.939,72.703,74.598,72.96,74.149,72.996z
		 M74.127,72.867c0.198-0.277,0.398-0.44,0.412-0.618c0.009-0.118-0.277-0.382-0.38-0.358c-0.164,0.038-0.365,0.244-0.399,0.41
		C73.734,72.427,73.944,72.602,74.127,72.867z"/>
	<path fill-rule="evenodd" clip-rule="evenodd" fill="#FFFFFF" d="M50.547,72.805c0.175,0.237,0.4,0.42,0.368,0.523
		c-0.054,0.171-0.272,0.289-0.423,0.43c-0.129-0.156-0.331-0.3-0.36-0.472C50.113,73.176,50.35,73.022,50.547,72.805z"/>
	<path fill-rule="evenodd" clip-rule="evenodd" fill="#FFFFFF" d="M50.897,31.284c0.214,0.227,0.46,0.383,0.439,0.492
		c-0.032,0.18-0.234,0.33-0.366,0.493c-0.147-0.144-0.364-0.267-0.416-0.439C50.521,31.719,50.732,31.535,50.897,31.284z"/>
	<path fill-rule="evenodd" clip-rule="evenodd" fill="#FFFFFF" d="M50.474,41.424c-0.175-0.277-0.377-0.461-0.344-0.58
		c0.047-0.169,0.265-0.292,0.411-0.434c0.133,0.137,0.379,0.283,0.37,0.41C50.898,40.99,50.688,41.147,50.474,41.424z"/>
	<path fill-rule="evenodd" clip-rule="evenodd" fill="#FFFFFF" d="M50.536,48.372c0.182,0.282,0.374,0.455,0.379,0.634
		c0.004,0.115-0.298,0.36-0.405,0.331c-0.162-0.043-0.354-0.263-0.378-0.43C50.114,48.78,50.338,48.619,50.536,48.372z"/>
	<path fill-rule="evenodd" clip-rule="evenodd" fill="#FFFFFF" d="M51.108,57.074c-0.257,0.193-0.421,0.407-0.547,0.387
		c-0.168-0.027-0.383-0.215-0.429-0.376c-0.029-0.1,0.22-0.397,0.341-0.394C50.649,56.695,50.82,56.888,51.108,57.074z"/>
	<path fill-rule="evenodd" clip-rule="evenodd" fill="#FFFFFF" d="M50.528,65.724c-0.196-0.252-0.417-0.416-0.397-0.541
		c0.027-0.167,0.222-0.383,0.384-0.426c0.105-0.028,0.403,0.221,0.399,0.338C50.907,65.272,50.714,65.443,50.528,65.724z"/>
	<path fill-rule="evenodd" clip-rule="evenodd" fill="#FFFFFF" d="M25.22,72.301c0.245-0.199,0.405-0.424,0.53-0.406
		c0.167,0.024,0.385,0.214,0.431,0.375c0.03,0.104-0.212,0.406-0.329,0.404C25.676,72.67,25.502,72.48,25.22,72.301z"/>
	<path fill-rule="evenodd" clip-rule="evenodd" fill="#FFFFFF" d="M74.127,72.867c-0.183-0.266-0.393-0.44-0.367-0.566
		c0.034-0.166,0.235-0.372,0.399-0.41c0.102-0.024,0.389,0.24,0.38,0.358C74.525,72.427,74.324,72.591,74.127,72.867z"/>
</g>
<g>
	<path fill="#8BC541" d="M-44.946,22.445c0.396-0.269,0.803-0.472,1.221-0.61c0.418-0.138,0.895-0.207,1.433-0.207
		c0.792,0,1.521,0.142,2.186,0.424c0.665,0.283,1.237,0.665,1.714,1.146c0.478,0.481,0.849,1.042,1.114,1.682
		c0.265,0.641,0.398,1.318,0.398,2.033c0,0.722-0.131,1.406-0.393,2.054c-0.262,0.647-0.633,1.215-1.115,1.704
		c-0.481,0.488-1.06,0.876-1.735,1.162c-0.676,0.287-1.428,0.43-2.256,0.43c-0.63,0-1.217-0.083-1.762-0.249
		c-0.545-0.166-1.037-0.4-1.475-0.701c-0.439-0.301-0.819-0.66-1.141-1.077c-0.322-0.417-0.579-0.874-0.77-1.369l1.741-0.87
		c0.113,0.361,0.279,0.695,0.499,1.003c0.219,0.308,0.478,0.573,0.775,0.796c0.297,0.223,0.626,0.396,0.987,0.52
		c0.361,0.124,0.743,0.186,1.146,0.186c0.51,0,0.982-0.094,1.417-0.281c0.435-0.188,0.814-0.444,1.136-0.77
		c0.322-0.325,0.575-0.706,0.759-1.141c0.184-0.435,0.276-0.9,0.276-1.396c0-0.502-0.092-0.968-0.276-1.396
		c-0.184-0.428-0.439-0.799-0.764-1.115c-0.326-0.315-0.706-0.563-1.141-0.743c-0.435-0.18-0.904-0.271-1.406-0.271
		c-0.566,0-1.088,0.101-1.566,0.302c-0.478,0.202-0.875,0.472-1.194,0.812l-1.56-0.244v-8.417h9.065v1.762h-7.313V22.445z"/>
	<path fill="#8BC541" d="M-32.856,22.445c0.396-0.269,0.803-0.472,1.221-0.61c0.418-0.138,0.895-0.207,1.433-0.207
		c0.792,0,1.521,0.142,2.186,0.424c0.665,0.283,1.237,0.665,1.714,1.146c0.478,0.481,0.849,1.042,1.114,1.682
		c0.265,0.641,0.398,1.318,0.398,2.033c0,0.722-0.131,1.406-0.393,2.054c-0.262,0.647-0.633,1.215-1.115,1.704
		c-0.481,0.488-1.06,0.876-1.735,1.162c-0.676,0.287-1.428,0.43-2.255,0.43c-0.63,0-1.217-0.083-1.762-0.249
		c-0.545-0.166-1.037-0.4-1.475-0.701c-0.439-0.301-0.819-0.66-1.141-1.077c-0.322-0.417-0.579-0.874-0.77-1.369l1.741-0.87
		c0.113,0.361,0.279,0.695,0.499,1.003c0.219,0.308,0.478,0.573,0.775,0.796c0.297,0.223,0.626,0.396,0.987,0.52
		c0.361,0.124,0.743,0.186,1.146,0.186c0.51,0,0.982-0.094,1.417-0.281c0.435-0.188,0.814-0.444,1.136-0.77
		c0.322-0.325,0.575-0.706,0.759-1.141c0.184-0.435,0.276-0.9,0.276-1.396c0-0.502-0.092-0.968-0.276-1.396
		c-0.184-0.428-0.439-0.799-0.764-1.115c-0.326-0.315-0.706-0.563-1.141-0.743c-0.435-0.18-0.904-0.271-1.406-0.271
		c-0.566,0-1.088,0.101-1.566,0.302c-0.478,0.202-0.875,0.472-1.194,0.812l-1.56-0.244v-8.417h9.065v1.762h-7.313V22.445z"/>
	<path fill="#8BC541" d="M-23.336,19.547c0-0.474,0.089-0.925,0.265-1.353c0.177-0.428,0.426-0.803,0.748-1.125
		c0.322-0.322,0.706-0.577,1.151-0.764c0.446-0.187,0.934-0.281,1.465-0.281c0.531,0,1.019,0.094,1.465,0.281
		c0.446,0.188,0.828,0.442,1.146,0.764c0.319,0.322,0.568,0.697,0.748,1.125c0.18,0.428,0.271,0.879,0.271,1.353
		c0,0.481-0.087,0.934-0.26,1.359c-0.173,0.425-0.419,0.8-0.738,1.125c-0.318,0.326-0.7,0.582-1.146,0.77
		c-0.446,0.188-0.941,0.281-1.486,0.281c-0.552,0-1.051-0.094-1.497-0.281c-0.446-0.187-0.826-0.444-1.141-0.77
		c-0.315-0.325-0.559-0.701-0.732-1.125C-23.249,20.481-23.336,20.029-23.336,19.547z M-10.843,15.588h2.07l-11.049,16.516h-2.059
		L-10.843,15.588z M-19.705,17.764c-0.255,0-0.493,0.044-0.717,0.133c-0.223,0.089-0.418,0.212-0.584,0.371
		c-0.166,0.159-0.297,0.349-0.393,0.568c-0.096,0.219-0.143,0.456-0.143,0.711c0,0.248,0.048,0.483,0.143,0.706
		c0.096,0.223,0.226,0.418,0.393,0.584c0.166,0.166,0.361,0.297,0.584,0.393c0.223,0.096,0.462,0.143,0.717,0.143
		c0.248,0,0.481-0.048,0.701-0.143c0.219-0.095,0.41-0.225,0.573-0.387c0.163-0.163,0.292-0.356,0.387-0.578
		c0.095-0.223,0.143-0.462,0.143-0.717s-0.048-0.492-0.143-0.711c-0.096-0.219-0.225-0.409-0.387-0.568
		c-0.163-0.159-0.354-0.283-0.573-0.371C-19.224,17.808-19.458,17.764-19.705,17.764z M-14.144,28.506
		c0-0.474,0.088-0.923,0.265-1.348c0.177-0.425,0.426-0.798,0.748-1.12c0.322-0.322,0.706-0.578,1.152-0.769
		c0.446-0.191,0.934-0.287,1.465-0.287c0.531,0,1.019,0.096,1.465,0.287c0.446,0.191,0.829,0.448,1.152,0.769
		c0.322,0.322,0.571,0.695,0.748,1.12c0.177,0.425,0.265,0.874,0.265,1.348c0,0.481-0.087,0.936-0.26,1.364
		c-0.173,0.428-0.418,0.803-0.732,1.125c-0.315,0.322-0.695,0.578-1.141,0.769c-0.446,0.191-0.945,0.287-1.497,0.287
		c-0.552,0-1.051-0.096-1.496-0.287c-0.446-0.191-0.826-0.447-1.141-0.769c-0.315-0.322-0.559-0.697-0.732-1.125
		C-14.057,29.442-14.144,28.987-14.144,28.506z M-10.514,26.723c-0.248,0-0.483,0.046-0.706,0.138
		c-0.223,0.092-0.418,0.218-0.584,0.377c-0.166,0.159-0.297,0.347-0.393,0.563c-0.095,0.216-0.143,0.451-0.143,0.706
		c0,0.248,0.048,0.483,0.143,0.706c0.096,0.223,0.226,0.418,0.393,0.584c0.166,0.166,0.361,0.297,0.584,0.393
		c0.223,0.096,0.458,0.143,0.706,0.143c0.248,0,0.481-0.048,0.701-0.143c0.219-0.095,0.41-0.225,0.573-0.387
		c0.163-0.163,0.292-0.356,0.387-0.578c0.096-0.223,0.143-0.462,0.143-0.717c0-0.255-0.048-0.49-0.143-0.706
		c-0.096-0.216-0.225-0.403-0.387-0.563c-0.163-0.159-0.354-0.285-0.573-0.377C-10.032,26.769-10.266,26.723-10.514,26.723z"/>
</g>
<g>
	<path fill="#8BC541" d="M77.527,51.017l5.721-9.765h2.261l-5.445,9.616h4.118v-2.653l2.08-0.149v2.802h2.399v1.826h-2.399v2.823
		h1.592v1.826h-5.222v-1.826h1.55v-2.823h-6.676L77.527,51.017z"/>
	<path fill="#8BC541" d="M93.194,47.854c0.396-0.269,0.803-0.472,1.221-0.61c0.418-0.138,0.895-0.207,1.433-0.207
		c0.792,0,1.521,0.142,2.186,0.424c0.665,0.283,1.237,0.665,1.714,1.146c0.478,0.481,0.849,1.042,1.114,1.682
		c0.265,0.641,0.398,1.318,0.398,2.033c0,0.722-0.131,1.406-0.393,2.054c-0.262,0.647-0.633,1.215-1.115,1.704
		c-0.481,0.488-1.06,0.876-1.735,1.162c-0.676,0.287-1.428,0.43-2.256,0.43c-0.63,0-1.217-0.083-1.762-0.249
		c-0.545-0.166-1.037-0.4-1.475-0.701c-0.439-0.301-0.819-0.66-1.141-1.077c-0.322-0.417-0.579-0.874-0.77-1.369l1.741-0.87
		c0.113,0.361,0.279,0.695,0.499,1.003c0.219,0.308,0.478,0.573,0.775,0.796c0.297,0.223,0.626,0.396,0.987,0.52
		c0.361,0.124,0.743,0.186,1.146,0.186c0.51,0,0.982-0.094,1.417-0.281c0.435-0.188,0.814-0.444,1.136-0.77
		c0.322-0.325,0.575-0.706,0.759-1.141c0.184-0.435,0.276-0.9,0.276-1.396c0-0.502-0.092-0.968-0.276-1.396
		c-0.184-0.428-0.439-0.799-0.764-1.114c-0.326-0.315-0.706-0.563-1.141-0.743c-0.435-0.18-0.904-0.271-1.406-0.271
		c-0.566,0-1.088,0.101-1.566,0.302c-0.478,0.202-0.875,0.472-1.194,0.812l-1.56-0.244v-8.417h9.065v1.762h-7.313V47.854z"/>
	<path fill="#8BC541" d="M102.715,44.956c0-0.474,0.089-0.925,0.265-1.353c0.177-0.428,0.426-0.803,0.748-1.125
		c0.322-0.322,0.706-0.577,1.152-0.764c0.446-0.187,0.934-0.281,1.465-0.281c0.531,0,1.019,0.094,1.465,0.281
		c0.446,0.187,0.828,0.442,1.146,0.764c0.319,0.322,0.568,0.697,0.748,1.125c0.18,0.428,0.271,0.879,0.271,1.353
		c0,0.481-0.087,0.934-0.26,1.359c-0.173,0.425-0.419,0.8-0.738,1.125c-0.318,0.326-0.7,0.582-1.146,0.769
		c-0.446,0.188-0.941,0.281-1.486,0.281c-0.552,0-1.051-0.094-1.497-0.281c-0.446-0.187-0.826-0.444-1.141-0.769
		c-0.315-0.325-0.559-0.701-0.732-1.125C102.801,45.89,102.715,45.437,102.715,44.956z M115.208,40.997h2.07l-11.049,16.516h-2.059
		L115.208,40.997z M106.345,43.173c-0.255,0-0.493,0.044-0.716,0.133c-0.223,0.089-0.418,0.212-0.584,0.371
		c-0.166,0.159-0.297,0.349-0.393,0.568c-0.096,0.219-0.143,0.456-0.143,0.711c0,0.248,0.048,0.483,0.143,0.706
		s0.226,0.418,0.393,0.584c0.166,0.166,0.361,0.297,0.584,0.393c0.223,0.096,0.462,0.143,0.716,0.143
		c0.248,0,0.481-0.048,0.701-0.143c0.219-0.095,0.41-0.225,0.573-0.387c0.163-0.163,0.292-0.356,0.387-0.578
		c0.095-0.223,0.143-0.462,0.143-0.717s-0.048-0.492-0.143-0.711c-0.096-0.219-0.225-0.409-0.387-0.568
		c-0.163-0.159-0.354-0.283-0.573-0.371C106.826,43.217,106.593,43.173,106.345,43.173z M111.907,53.914
		c0-0.474,0.088-0.923,0.265-1.348c0.177-0.425,0.426-0.798,0.748-1.12c0.322-0.322,0.706-0.578,1.151-0.77
		c0.446-0.191,0.934-0.287,1.465-0.287c0.531,0,1.019,0.096,1.465,0.287c0.446,0.191,0.829,0.448,1.152,0.77
		c0.322,0.322,0.571,0.695,0.748,1.12c0.177,0.425,0.265,0.874,0.265,1.348c0,0.481-0.087,0.936-0.26,1.364
		c-0.173,0.428-0.418,0.803-0.732,1.125c-0.315,0.322-0.695,0.578-1.141,0.769c-0.446,0.191-0.945,0.287-1.497,0.287
		c-0.552,0-1.051-0.096-1.496-0.287c-0.446-0.191-0.826-0.447-1.141-0.769c-0.315-0.322-0.559-0.697-0.732-1.125
		C111.993,54.85,111.907,54.396,111.907,53.914z M115.537,52.131c-0.248,0-0.483,0.046-0.706,0.138
		c-0.223,0.092-0.418,0.218-0.584,0.377c-0.166,0.159-0.297,0.347-0.393,0.563c-0.095,0.216-0.143,0.451-0.143,0.706
		c0,0.248,0.048,0.483,0.143,0.706c0.096,0.223,0.226,0.418,0.393,0.584c0.166,0.166,0.361,0.297,0.584,0.393
		c0.223,0.096,0.458,0.143,0.706,0.143c0.248,0,0.481-0.048,0.701-0.143c0.219-0.095,0.41-0.225,0.573-0.387
		c0.163-0.163,0.292-0.356,0.387-0.578s0.143-0.462,0.143-0.717c0-0.255-0.048-0.49-0.143-0.706
		c-0.096-0.216-0.225-0.403-0.387-0.563c-0.163-0.159-0.354-0.285-0.573-0.377C116.018,52.177,115.784,52.131,115.537,52.131z"/>
</g>
</svg>
